712 -112 -120 24
992
48 -48 48 -48 48 -48 48 -48 -48 488
992
24 -8 24 -8 40 -8 8 -8 -8 8 -8 24 -8 -8 -8 -8 -8 -8 -8 -8 -8 576
40 -40 40 -40 40 -40 40 -40 40 -40 40 -40 -40 -40 -40 272
424 -32 -32 -32 -32 -32 -32 -32 280
-8 168 -104 -168 512
992
