-40 -24 112 -8 -128 640
-80 -88 -80 -112 -8 16 -72 -80 -72 312
-120 -160 -120 -96 464
-40 -56 -104 -120 640
72 -48 -104 24 -88 -24 -88 -104 376
-80 -120 -16 -96 648
-128 -64 -32 -56 680
-72 -64 -48 -64 56 -112 -88 432
-80 -64 -112 -16 688
48 -32 -48 -112 -128 -144 -96 328
-120 -40 -104 -64 -32 -104 480
8 -160 -104 -16 24 -120 -72 432
-16 -64 -56 -160 -40 -136 472
88 -72 120 -136 544
-104 -96 -16 48 -24 -104 -104 440
-40 -120 -40 -56 -160 -112 -112 -96 192
8 -104 -104 -72 -104 -96 -160 288
-128 -32 -160 -64 -8 -24 -72 -104 -120 -128 72
-144 -136 696
-16 112 -136 96 -48 -48 488
